<svg width="106" height="110" viewBox="0 0 106 110" fill="none" xmlns="http://www.w3.org/2000/svg">
<path d="M26.75 9.5H28.5C28.9641 9.5 29.4092 9.30904 29.7374 8.96913C30.0656 8.62922 30.25 8.16821 30.25 7.6875C30.25 7.2068 30.0656 6.74578 29.7374 6.40587C29.4092 6.06596 28.9641 5.875 28.5 5.875H26.75C26.2859 5.875 25.8408 6.06596 25.5126 6.40587C25.1844 6.74578 25 7.2068 25 7.6875C25 8.16821 25.1844 8.62922 25.5126 8.96913C25.8408 9.30904 26.2859 9.5 26.75 9.5Z" fill="#25579F"/>
<path d="M35.5 9.5H37.25C37.7141 9.5 38.1592 9.30904 38.4874 8.96913C38.8156 8.62922 39 8.16821 39 7.6875C39 7.2068 38.8156 6.74578 38.4874 6.40587C38.1592 6.06596 37.7141 5.875 37.25 5.875H35.5C35.0359 5.875 34.5908 6.06596 34.2626 6.40587C33.9344 6.74578 33.75 7.2068 33.75 7.6875C33.75 8.16821 33.9344 8.62922 34.2626 8.96913C34.5908 9.30904 35.0359 9.5 35.5 9.5Z" fill="#25579F"/>
<path d="M35.5 85.625H28.5C27.5717 85.625 26.6815 86.0069 26.0251 86.6867C25.3687 87.3666 25 88.2886 25 89.25V91.0625C25 92.0239 25.3687 92.9459 26.0251 93.6258C26.6815 94.3056 27.5717 94.6875 28.5 94.6875H35.5C36.4283 94.6875 37.3185 94.3056 37.9749 93.6258C38.6313 92.9459 39 92.0239 39 91.0625V89.25C39 88.2886 38.6313 87.3666 37.9749 86.6867C37.3185 86.0069 36.4283 85.625 35.5 85.625ZM28.5 91.0625V89.25H35.5V91.0625H28.5Z" fill="#25579F"/>
<path d="M89.75 96.5H86.25C85.7859 96.5 85.3408 96.309 85.0126 95.9691C84.6844 95.6292 84.5 95.1682 84.5 94.6875C84.5 94.2068 84.3156 93.7458 83.9874 93.4059C83.6592 93.066 83.2141 92.875 82.75 92.875C82.2859 92.875 81.8408 93.066 81.5126 93.4059C81.1844 93.7458 81 94.2068 81 94.6875C81 96.1259 81.5502 97.5056 82.5303 98.5247C83.5103 99.5438 84.8403 100.119 86.229 100.125L86.2062 101.914C86.2002 102.394 86.3785 102.858 86.7021 103.202C87.0256 103.546 87.4679 103.743 87.9317 103.75H87.9562C88.4162 103.75 88.8576 103.563 89.1851 103.228C89.5126 102.894 89.6998 102.439 89.7062 101.963L89.729 100.125H89.75C91.1424 100.125 92.4777 99.5521 93.4623 98.5324C94.4469 97.5127 95 96.1296 95 94.6875C95 93.2454 94.4469 91.8623 93.4623 90.8426C92.4777 89.8229 91.1424 89.25 89.75 89.25H86.25C85.7859 89.25 85.3408 89.059 85.0126 88.7191C84.6844 88.3792 84.5 87.9182 84.5 87.4375C84.5 86.9568 84.6844 86.4958 85.0126 86.1559C85.3408 85.816 85.7859 85.625 86.25 85.625H89.75C90.2141 85.625 90.6592 85.816 90.9874 86.1559C91.3156 86.4958 91.5 86.9568 91.5 87.4375C91.5 87.9182 91.6844 88.3792 92.0126 88.7191C92.3408 89.059 92.7859 89.25 93.25 89.25C93.7141 89.25 94.1592 89.059 94.4874 88.7191C94.8156 88.3792 95 87.9182 95 87.4375C95 85.9954 94.4469 84.6123 93.4623 83.5926C92.4777 82.5729 91.1424 82 89.75 82V80.1875C89.75 79.7068 89.5656 79.2458 89.2374 78.9059C88.9092 78.566 88.4641 78.375 88 78.375C87.5359 78.375 87.0908 78.566 86.7626 78.9059C86.4344 79.2458 86.25 79.7068 86.25 80.1875V82C84.8576 82 83.5223 82.5729 82.5377 83.5926C81.5531 84.6123 81 85.9954 81 87.4375C81 88.8796 81.5531 90.2627 82.5377 91.2824C83.5223 92.3021 84.8576 92.875 86.25 92.875H89.75C90.2141 92.875 90.6592 93.066 90.9874 93.4059C91.3156 93.7458 91.5 94.2068 91.5 94.6875C91.5 95.1682 91.3156 95.6292 90.9874 95.9691C90.6592 96.309 90.2141 96.5 89.75 96.5Z" fill="#25579F"/>
<path d="M103.75 65.6875C104.214 65.6875 104.659 65.4965 104.987 65.1566C105.316 64.8167 105.5 64.3557 105.5 63.875V27.625C105.5 27.1443 105.316 26.6833 104.987 26.3434C104.659 26.0035 104.214 25.8125 103.75 25.8125H63.5V9.5C63.5 7.09648 62.5781 4.79139 60.9372 3.09184C59.2962 1.3923 57.0706 0.4375 54.75 0.4375H9.25C6.92936 0.4375 4.70376 1.3923 3.06282 3.09184C1.42187 4.79139 0.5 7.09648 0.5 9.5V91.0625C0.5 93.466 1.42187 95.7711 3.06282 97.4707C4.70376 99.1702 6.92936 100.125 9.25 100.125H40.75V107.375C40.75 107.856 40.9344 108.317 41.2626 108.657C41.5908 108.997 42.0359 109.188 42.5 109.188H77.5C77.9641 109.188 78.4093 108.997 78.7374 108.657C79.0656 108.317 79.25 107.856 79.25 107.375V106.741C81.9098 108.339 84.9292 109.183 88.0041 109.187C91.0791 109.192 94.101 108.358 96.7655 106.768C99.43 105.179 101.643 102.89 103.182 100.133C104.721 97.3758 105.531 94.2472 105.531 91.0625C105.531 87.8778 104.721 84.7492 103.182 81.992C101.643 79.2347 99.43 76.9461 96.7655 75.3565C94.101 73.767 91.0791 72.9326 88.0041 72.9375C84.9292 72.9424 81.9098 73.7864 79.25 75.3844V65.6875H103.75ZM4 9.5C4.00415 8.05921 4.55861 6.67866 5.54228 5.65986C6.52595 4.64106 7.85889 4.0668 9.25 4.0625H54.75C56.1411 4.0668 57.4741 4.64106 58.4577 5.65986C59.4414 6.67866 59.9958 8.05921 60 9.5V11.3125H4V9.5ZM4 14.9375H60V25.8125H54.75C54.2859 25.8125 53.8408 26.0035 53.5126 26.3434C53.1844 26.6833 53 27.1443 53 27.625V40.3488C52.8488 40.3337 52.6969 40.3276 52.545 40.3306C51.2138 40.4808 49.9846 41.1399 49.0978 42.179C48.211 43.2182 47.7304 44.5626 47.75 45.9494V62.0625H46C44.6089 62.0668 43.2759 62.6411 42.2923 63.6599C41.3086 64.6787 40.7542 66.0592 40.75 67.5V80.1875H4V14.9375ZM63.5 69.3125C63.9641 69.3125 64.4093 69.1215 64.7374 68.7816C65.0656 68.4417 65.25 67.9807 65.25 67.5V60.25C65.25 59.7693 65.4344 59.3083 65.7626 58.9684C66.0908 58.6285 66.5359 58.4375 67 58.4375C67.2336 58.4354 67.465 58.4843 67.6791 58.5811C67.8932 58.678 68.0852 58.8205 68.2425 58.9994C68.4063 59.1599 68.536 59.354 68.6234 59.5693C68.7108 59.7847 68.7539 60.0165 68.75 60.25V67.5C68.75 67.9807 68.9344 68.4417 69.2626 68.7816C69.5908 69.1215 70.0359 69.3125 70.5 69.3125C70.9641 69.3125 71.4093 69.1215 71.7374 68.7816C72.0656 68.4417 72.25 67.9807 72.25 67.5V63.875C72.25 63.3943 72.4344 62.9333 72.7626 62.5934C73.0908 62.2535 73.5359 62.0625 74 62.0625C74.2336 62.0604 74.465 62.1093 74.6791 62.2061C74.8932 62.303 75.0852 62.4455 75.2425 62.6244C75.4063 62.7849 75.536 62.979 75.6234 63.1943C75.7108 63.4097 75.7539 63.6415 75.75 63.875V84.1387C75.7505 85.9317 75.239 87.6848 74.28 89.1775L73.125 90.9538C72.5505 91.8508 72.246 92.9042 72.25 93.9806V94.6875H47.75V93.9806C47.754 92.9042 47.4495 91.8508 46.875 90.9538L45.72 89.1775C44.761 87.6848 44.2496 85.9317 44.25 84.1387V67.5C44.25 67.0193 44.4344 66.5583 44.7626 66.2184C45.0908 65.8785 45.5359 65.6875 46 65.6875H47.75V74.75C47.75 75.2307 47.9344 75.6917 48.2626 76.0316C48.5908 76.3715 49.0359 76.5625 49.5 76.5625C49.9641 76.5625 50.4093 76.3715 50.7374 76.0316C51.0656 75.6917 51.25 75.2307 51.25 74.75V45.9494C51.236 45.4714 51.3895 45.0042 51.6823 44.6344C51.975 44.2645 52.3872 44.017 52.8425 43.9375C53.1017 43.9157 53.3622 43.955 53.6047 44.0523C53.8471 44.1496 54.0652 44.3024 54.2425 44.4994C54.4063 44.6599 54.536 44.854 54.6234 45.0693C54.7108 45.2847 54.7539 45.5165 54.75 45.75V67.5C54.75 67.9807 54.9344 68.4417 55.2626 68.7816C55.5908 69.1215 56.0359 69.3125 56.5 69.3125C56.9641 69.3125 57.4093 69.1215 57.7374 68.7816C58.0656 68.4417 58.25 67.9807 58.25 67.5V58.4375C58.25 57.9568 58.4344 57.4958 58.7626 57.1559C59.0908 56.816 59.5359 56.625 60 56.625C60.2336 56.6229 60.465 56.6718 60.6791 56.7686C60.8932 56.8655 61.0852 57.008 61.2425 57.1869C61.4063 57.3474 61.536 57.5415 61.6234 57.7568C61.7108 57.9722 61.7539 58.204 61.75 58.4375V67.5C61.75 67.9807 61.9344 68.4417 62.2626 68.7816C62.5908 69.1215 63.0359 69.3125 63.5 69.3125ZM40.75 96.5H9.25C7.85889 96.4957 6.52595 95.9214 5.54228 94.9026C4.55861 93.8838 4.00415 92.5033 4 91.0625V83.8125H40.75V84.1387C40.7498 86.6488 41.4684 89.1025 42.815 91.1894L43.9525 92.9656C44.145 93.2667 44.2484 93.6195 44.25 93.9806V94.6875H42.5C42.0359 94.6875 41.5908 94.8785 41.2626 95.2184C40.9344 95.5583 40.75 96.0193 40.75 96.5ZM75.75 105.562H44.25V98.3125H75.75V105.562ZM88 76.5625C90.2402 76.5571 92.4489 77.1085 94.4407 78.1705C96.4324 79.2325 98.149 80.774 99.4463 82.6656C100.744 84.5572 101.584 86.7435 101.896 89.0411C102.208 91.3386 101.984 93.6802 101.241 95.8692C100.498 98.0582 99.2594 100.031 97.6282 101.621C95.9969 103.211 94.021 104.373 91.8665 105.008C89.7119 105.644 87.4416 105.734 85.2463 105.272C83.0509 104.811 80.9946 103.81 79.25 102.354V96.5C79.25 96.0193 79.0656 95.5583 78.7374 95.2184C78.4093 94.8785 77.9641 94.6875 77.5 94.6875H75.75V93.9806C75.7516 93.6195 75.855 93.2667 76.0475 92.9656L77.185 91.1894C78.5316 89.1025 79.2502 86.6488 79.25 84.1387V79.7706C81.7259 77.695 84.8147 76.5625 88 76.5625ZM78.935 62.0625C78.6816 61.3074 78.2692 60.6201 77.7275 60.0506C76.9975 59.3072 76.0772 58.7961 75.0754 58.5776C74.0736 58.3592 73.0324 58.4427 72.075 58.8181C71.8372 57.9116 71.3723 57.0863 70.7275 56.4256C69.9053 55.6033 68.8522 55.0724 67.72 54.9096C66.5879 54.7467 65.435 54.9602 64.4275 55.5194C64.2291 55.19 63.9942 54.8859 63.7275 54.6131C63.0203 53.8923 62.1339 53.3887 61.1669 53.1583C60.2 52.928 59.1902 52.9798 58.25 53.3081V45.75C58.2538 45.0398 58.1212 44.3359 57.8598 43.6794C57.5984 43.0228 57.2135 42.4266 56.7275 41.9256C56.6575 41.8531 56.57 41.8169 56.5 41.7444V29.4375H102V62.0625H78.935Z" fill="#25579F"/>
<path d="M73.0812 54.5424C73.3348 54.7046 73.6241 54.7971 73.9218 54.811C74.2194 54.825 74.5156 54.76 74.7822 54.6222L88.7823 47.3722C89.0735 47.2219 89.3184 46.9904 89.4897 46.7039C89.6609 46.4173 89.7516 46.087 89.7516 45.75C89.7516 45.413 89.6609 45.0827 89.4897 44.7961C89.3184 44.5096 89.0735 44.2781 88.7823 44.1278L74.7822 36.8778C74.5154 36.7397 74.2189 36.6745 73.9208 36.6885C73.6228 36.7025 73.3332 36.7951 73.0794 36.9577C72.8257 37.1202 72.6163 37.3472 72.4712 37.6172C72.326 37.8871 72.2499 38.191 72.25 38.5V53C72.25 53.3092 72.3264 53.6132 72.4719 53.8832C72.6174 54.1532 72.8272 54.3801 73.0812 54.5424ZM75.75 41.4326L84.087 45.75L75.75 50.0674V41.4326Z" fill="#25579F"/>
<path d="M32 18.5625C28.885 18.5625 25.8399 19.5192 23.2498 21.3117C20.6597 23.1041 18.641 25.6518 17.4489 28.6325C16.2568 31.6132 15.9449 34.8931 16.5526 38.0574C17.1604 41.2217 18.6604 44.1283 20.8631 46.4097C23.0658 48.691 25.8721 50.2446 28.9273 50.8741C31.9825 51.5035 35.1493 51.1804 38.0273 49.9458C40.9052 48.7111 43.365 46.6203 45.0957 43.9377C46.8263 41.2552 47.75 38.1013 47.75 34.875C47.7449 30.5503 46.0839 26.4042 43.1313 23.3461C40.1787 20.2881 36.1756 18.5678 32 18.5625ZM26.75 46.3209V38.5C26.75 38.0193 26.9344 37.5583 27.2626 37.2184C27.5908 36.8785 28.0359 36.6875 28.5 36.6875H35.5C35.9641 36.6875 36.4093 36.8785 36.7374 37.2184C37.0656 37.5583 37.25 38.0193 37.25 38.5V46.3209C35.6123 47.1381 33.8179 47.5625 32 47.5625C30.1822 47.5625 28.3877 47.1381 26.75 46.3209ZM30.25 29.4375C30.25 29.079 30.3526 28.7286 30.5449 28.4305C30.7372 28.1325 31.0105 27.9002 31.3303 27.763C31.6501 27.6258 32.002 27.5899 32.3414 27.6598C32.6809 27.7298 32.9927 27.9024 33.2374 28.1559C33.4822 28.4094 33.6489 28.7323 33.7164 29.0839C33.7839 29.4355 33.7493 29.7999 33.6168 30.1311C33.4843 30.4623 33.26 30.7454 32.9723 30.9445C32.6845 31.1437 32.3461 31.25 32 31.25C31.5359 31.25 31.0908 31.059 30.7626 30.7191C30.4344 30.3792 30.25 29.9182 30.25 29.4375ZM40.75 43.7381V38.5C40.7461 37.1244 40.238 35.8016 39.3283 34.7992C38.4187 33.7968 37.1754 33.1897 35.85 33.1006C36.5429 32.3242 37.0023 31.3554 37.1718 30.3129C37.3414 29.2703 37.2138 28.1992 36.8047 27.2305C36.3956 26.2619 35.7228 25.4378 34.8685 24.8591C34.0142 24.2804 33.0156 23.9721 31.9948 23.9721C30.974 23.9721 29.9753 24.2804 29.121 24.8591C28.2667 25.4378 27.5939 26.2619 27.1848 27.2305C26.7757 28.1992 26.6481 29.2703 26.8177 30.3129C26.9873 31.3554 27.4466 32.3242 28.1395 33.1006C26.816 33.1923 25.5753 33.8006 24.6678 34.8027C23.7604 35.8048 23.2537 37.1261 23.25 38.5V43.7381C21.5618 41.9536 20.4199 39.6926 19.9674 37.2386C19.515 34.7846 19.7721 32.2469 20.7065 29.9437C21.641 27.6404 23.2112 25.6742 25.2203 24.2915C27.2293 22.9088 29.5878 22.1712 32 22.1712C34.4122 22.1712 36.7707 22.9088 38.7797 24.2915C40.7888 25.6742 42.359 27.6404 43.2935 29.9437C44.2279 32.2469 44.485 34.7846 44.0326 37.2386C43.5801 39.6926 42.4382 41.9536 40.75 43.7381Z" fill="#25579F"/>
<path d="M14.5 54.8125H12.75C12.2859 54.8125 11.8408 55.0035 11.5126 55.3434C11.1844 55.6833 11 56.1443 11 56.625C11 57.1057 11.1844 57.5667 11.5126 57.9066C11.8408 58.2465 12.2859 58.4375 12.75 58.4375H14.5C14.9641 58.4375 15.4092 58.2465 15.7374 57.9066C16.0656 57.5667 16.25 57.1057 16.25 56.625C16.25 56.1443 16.0656 55.6833 15.7374 55.3434C15.4092 55.0035 14.9641 54.8125 14.5 54.8125Z" fill="#25579F"/>
<path d="M39 54.8125H21.5C21.0359 54.8125 20.5908 55.0035 20.2626 55.3434C19.9344 55.6833 19.75 56.1443 19.75 56.625C19.75 57.1057 19.9344 57.5667 20.2626 57.9066C20.5908 58.2465 21.0359 58.4375 21.5 58.4375H39C39.4641 58.4375 39.9093 58.2465 40.2374 57.9066C40.5656 57.5667 40.75 57.1057 40.75 56.625C40.75 56.1443 40.5656 55.6833 40.2374 55.3434C39.9093 55.0035 39.4641 54.8125 39 54.8125Z" fill="#25579F"/>
<path d="M14.5 62.0625H12.75C12.2859 62.0625 11.8408 62.2535 11.5126 62.5934C11.1844 62.9333 11 63.3943 11 63.875C11 64.3557 11.1844 64.8167 11.5126 65.1566C11.8408 65.4965 12.2859 65.6875 12.75 65.6875H14.5C14.9641 65.6875 15.4092 65.4965 15.7374 65.1566C16.0656 64.8167 16.25 64.3557 16.25 63.875C16.25 63.3943 16.0656 62.9333 15.7374 62.5934C15.4092 62.2535 14.9641 62.0625 14.5 62.0625Z" fill="#25579F"/>
<path d="M35.5 62.0625H21.5C21.0359 62.0625 20.5908 62.2535 20.2626 62.5934C19.9344 62.9333 19.75 63.3943 19.75 63.875C19.75 64.3557 19.9344 64.8167 20.2626 65.1566C20.5908 65.4965 21.0359 65.6875 21.5 65.6875H35.5C35.9641 65.6875 36.4093 65.4965 36.7374 65.1566C37.0656 64.8167 37.25 64.3557 37.25 63.875C37.25 63.3943 37.0656 62.9333 36.7374 62.5934C36.4093 62.2535 35.9641 62.0625 35.5 62.0625Z" fill="#25579F"/>
<path d="M14.5 69.3125H12.75C12.2859 69.3125 11.8408 69.5035 11.5126 69.8434C11.1844 70.1833 11 70.6443 11 71.125C11 71.6057 11.1844 72.0667 11.5126 72.4066C11.8408 72.7465 12.2859 72.9375 12.75 72.9375H14.5C14.9641 72.9375 15.4092 72.7465 15.7374 72.4066C16.0656 72.0667 16.25 71.6057 16.25 71.125C16.25 70.6443 16.0656 70.1833 15.7374 69.8434C15.4092 69.5035 14.9641 69.3125 14.5 69.3125Z" fill="#25579F"/>
<path d="M35.5 69.3125H21.5C21.0359 69.3125 20.5908 69.5035 20.2626 69.8434C19.9344 70.1833 19.75 70.6443 19.75 71.125C19.75 71.6057 19.9344 72.0667 20.2626 72.4066C20.5908 72.7465 21.0359 72.9375 21.5 72.9375H35.5C35.9641 72.9375 36.4093 72.7465 36.7374 72.4066C37.0656 72.0667 37.25 71.6057 37.25 71.125C37.25 70.6443 37.0656 70.1833 36.7374 69.8434C36.4093 69.5035 35.9641 69.3125 35.5 69.3125Z" fill="#25579F"/>
<path d="M103.75 2.25H68.75C68.2859 2.25 67.8408 2.44096 67.5126 2.78087C67.1844 3.12078 67 3.5818 67 4.0625V20.375C67 20.8557 67.1844 21.3167 67.5126 21.6566C67.8408 21.9965 68.2859 22.1875 68.75 22.1875H103.75C104.214 22.1875 104.659 21.9965 104.987 21.6566C105.316 21.3167 105.5 20.8557 105.5 20.375V4.0625C105.5 3.5818 105.316 3.12078 104.987 2.78087C104.659 2.44096 104.214 2.25 103.75 2.25ZM102 18.5625H70.5V5.875H102V18.5625Z" fill="#25579F"/>
<path d="M75.75 11.3125H77.5C77.9641 11.3125 78.4092 11.1215 78.7374 10.7816C79.0656 10.4417 79.25 9.98071 79.25 9.5C79.25 9.0193 79.0656 8.55828 78.7374 8.21837C78.4092 7.87846 77.9641 7.6875 77.5 7.6875H75.75C75.2859 7.6875 74.8408 7.87846 74.5126 8.21837C74.1844 8.55828 74 9.0193 74 9.5C74 9.98071 74.1844 10.4417 74.5126 10.7816C74.8408 11.1215 75.2859 11.3125 75.75 11.3125Z" fill="#25579F"/>
<path d="M75.75 16.75H77.5C77.9641 16.75 78.4092 16.559 78.7374 16.2191C79.0656 15.8792 79.25 15.4182 79.25 14.9375C79.25 14.4568 79.0656 13.9958 78.7374 13.6559C78.4092 13.316 77.9641 13.125 77.5 13.125H75.75C75.2859 13.125 74.8408 13.316 74.5126 13.6559C74.1844 13.9958 74 14.4568 74 14.9375C74 15.4182 74.1844 15.8792 74.5126 16.2191C74.8408 16.559 75.2859 16.75 75.75 16.75Z" fill="#25579F"/>
<path d="M84.5 11.3125H96.75C97.2141 11.3125 97.6592 11.1215 97.9874 10.7816C98.3156 10.4417 98.5 9.98071 98.5 9.5C98.5 9.0193 98.3156 8.55828 97.9874 8.21837C97.6592 7.87846 97.2141 7.6875 96.75 7.6875H84.5C84.0359 7.6875 83.5908 7.87846 83.2626 8.21837C82.9344 8.55828 82.75 9.0193 82.75 9.5C82.75 9.98071 82.9344 10.4417 83.2626 10.7816C83.5908 11.1215 84.0359 11.3125 84.5 11.3125Z" fill="#25579F"/>
<path d="M84.5 16.75H96.75C97.2141 16.75 97.6592 16.559 97.9874 16.2191C98.3156 15.8792 98.5 15.4182 98.5 14.9375C98.5 14.4568 98.3156 13.9958 97.9874 13.6559C97.6592 13.316 97.2141 13.125 96.75 13.125H84.5C84.0359 13.125 83.5908 13.316 83.2626 13.6559C82.9344 13.9958 82.75 14.4568 82.75 14.9375C82.75 15.4182 82.9344 15.8792 83.2626 16.2191C83.5908 16.559 84.0359 16.75 84.5 16.75Z" fill="#25579F"/>
</svg>
